dump.vcd
$date
Wed Aug 27 09:39:40 2025
$end
$version
Riviera-PRO Version 2023.04.112.8911
$end
$timescale
1 ns
$end

$scope module tbench_top $end
$var reg 1 ! clk $end
$var reg 1 " reset $end

$scope module in $end
$var reg 8 # data_in [7:0] $end
$var reg 8 $ data_out [7:0] $end
$var reg 1 % empty $end
$var reg 1 & full $end
$var reg 1 ' rd $end
$var reg 1 ( wr $end
$var reg 4 ) fifo_cnt [3:0] $end
$var reg 8 * data_in [7:0] $end
$var reg 1 + rd $end
$var reg 1 , wr $end
$var reg 1 - full $end
$var reg 1 . empty $end
$var reg 8 / data_out [7:0] $end
$var reg 4 0 fifo_cnt [3:0] $end
$var reg 8 1 data_in [7:0] $end
$var reg 1 2 rd $end
$var reg 1 3 wr $end
$var reg 1 4 full $end
$var reg 1 5 empty $end
$var reg 8 6 data_out [7:0] $end
$var reg 4 7 fifo_cnt [3:0] $end
$upscope $end


$scope module dut $end
$var wire 1 8 clk $end
$var wire 1 9 rst $end
$var wire 1 : wr $end
$var wire 1 ; rd $end
$var wire 8 < data_in [7:0] $end
$var wire 1 = empty $end
$var wire 1 > full $end
$var reg 8 ? data_out [7:0] $end
$var reg 4 @ write_pointer [3:0] $end
$var reg 4 A read_pointer [3:0] $end
$var parameter 32 B FIFO_DEPTH [31:0] $end
$var parameter 32 C DATA_WIDTH [31:0] $end
$var parameter 32 D FIFO_DEPTH_LOG [31:0] $end
$upscope $end

$upscope $end


$scope module uvm_pkg $end
$var integer 32 E UVM_UNBOUNDED_CONNECTIONS $end
$var reg 1 F uvm_start_uvm_declarations $end
$var integer 32 G uvm_global_random_seed $end
$var parameter 32 H UVM_HDL_MAX_WIDTH [31:0] $end
$var parameter 32 I UVM_STREAMBITS [31:0] $end
$var parameter 32 J UVM_RADIX [31:0] $end
$var parameter 32 K UVM_MACRO_NUMFLAGS [31:0] $end
$var parameter 32 L UVM_DEFAULT [31:0] $end
$var parameter 32 M UVM_ALL_ON [31:0] $end
$var parameter 32 N UVM_FLAGS_ON [31:0] $end
$var parameter 32 O UVM_FLAGS_OFF [31:0] $end
$var parameter 32 P UVM_COPY [31:0] $end
$var parameter 32 Q UVM_NOCOPY [31:0] $end
$var parameter 32 R UVM_COMPARE [31:0] $end
$var parameter 32 S UVM_NOCOMPARE [31:0] $end
$var parameter 32 T UVM_PRINT [31:0] $end
$var parameter 32 U UVM_NOPRINT [31:0] $end
$var parameter 32 V UVM_RECORD [31:0] $end
$var parameter 32 W UVM_NORECORD [31:0] $end
$var parameter 32 X UVM_PACK [31:0] $end
$var parameter 32 Y UVM_NOPACK [31:0] $end
$var parameter 32 Z UVM_PHYSICAL [31:0] $end
$var parameter 32 [ UVM_ABSTRACT [31:0] $end
$var parameter 32 \ UVM_READONLY [31:0] $end
$var parameter 32 ] UVM_NODEFPRINT [31:0] $end
$var parameter 32 ^ UVM_MACRO_EXTRAS [31:0] $end
$var parameter 32 _ UVM_FLAGS [31:0] $end
$var parameter 32 ` UVM_UNPACK [31:0] $end
$var parameter 32 a UVM_CHECK_FIELDS [31:0] $end
$var parameter 32 b UVM_END_DATA_EXTRA [31:0] $end
$var parameter 32 c UVM_START_FUNCS [31:0] $end
$var parameter 32 d UVM_SET [31:0] $end
$var parameter 32 e UVM_SETINT [31:0] $end
$var parameter 32 f UVM_SETOBJ [31:0] $end
$var parameter 32 g UVM_SETSTR [31:0] $end
$var parameter 32 h UVM_END_FUNCS [31:0] $end
$var parameter 32 i UVM_STR_CRC_POLYNOMIAL [31:0] $end
$var parameter 32 j UVM_STDOUT [31:0] $end
$var parameter 32 k UVM_LOG_UVM_RM_RECORD [31:0] $end
$var parameter 32 l UVM_LINE_WIDTH [31:0] $end
$var parameter 32 m UVM_NUM_LINES [31:0] $end
$var parameter 32 n UVM_SMALL_STRING [31:0] $end
$var parameter 32 o UVM_LARGE_STRING [31:0] $end

$scope function uvm_hdl_check_path $end
$var integer 32 p uvm_hdl_check_path $end
$upscope $end


$scope function uvm_hdl_deposit $end
$var reg 1024 q value [1023:0] $end
$var integer 32 r uvm_hdl_deposit $end
$upscope $end


$scope function uvm_hdl_force $end
$var reg 1024 s value [1023:0] $end
$var integer 32 t uvm_hdl_force $end
$upscope $end


$scope task uvm_hdl_force_time $end
$var reg 1024 u value [1023:0] $end
$var time 64 v force_time $end
$upscope $end


$scope function uvm_hdl_release_and_read $end
$var reg 1024 w value [1023:0] $end
$var integer 32 x uvm_hdl_release_and_read $end
$upscope $end


$scope function uvm_hdl_release $end
$var integer 32 y uvm_hdl_release $end
$upscope $end


$scope function uvm_hdl_read $end
$var reg 1024 z value [1023:0] $end
$var integer 32 { uvm_hdl_read $end
$upscope $end


$scope function uvm_dpi_get_next_arg_c $end
$var integer 32 | init $end
$upscope $end


$scope function uvm_dpi_get_tool_name_c $end
$upscope $end


$scope function uvm_dpi_get_tool_version_c $end
$upscope $end


$scope function uvm_dpi_get_next_arg $end
$var integer 32 } init $end
$upscope $end


$scope function uvm_dpi_get_tool_name $end
$upscope $end


$scope function uvm_dpi_get_tool_version $end
$upscope $end


$scope function uvm_dpi_regcomp $end
$upscope $end


$scope function uvm_dpi_regexec $end
$var integer 32 ~ uvm_dpi_regexec $end
$upscope $end


$scope function uvm_dpi_regfree $end
$upscope $end


$scope function uvm_re_match $end
$var integer 32 !! uvm_re_match $end
$upscope $end


$scope function uvm_dump_re_cache $end
$upscope $end


$scope function uvm_glob_to_re $end
$upscope $end


$scope function uvm_revision_string $end
$upscope $end


$scope function uvm_radix_to_string $end
$var integer 32 "! radix $end
$upscope $end


$scope function uvm_instance_scope $end
$var reg 8 #! c [7:0] $end
$var integer 32 $! pos $end

$scope begin 1unnblk $end
$var integer 32 %! dot_pos $end
$var integer 32 &! slash_cnt $end
$var integer 32 '! slash_pos $end
$upscope $end

$upscope $end


$scope function uvm_oneway_hash $end
$var integer 32 (! seed $end
$var integer 32 )! uvm_oneway_hash $end
$var reg 1 *! msb $end
$var reg 8 +! current_byte [7:0] $end
$var reg 32 ,! crc1 [31:0] $end
$upscope $end


$scope function uvm_create_random_seed $end
$var integer 32 -! uvm_create_random_seed $end
$upscope $end


$scope function uvm_object_value_str $end
$upscope $end


$scope function uvm_leaf_scope $end
$var reg 8 .! scope_separator [7:0] $end
$var reg 8 /! bracket_match [7:0] $end
$var integer 32 0! pos $end
$var integer 32 1! bmatches $end
$upscope $end


$scope function get_radix_string_global $end
$var integer 32 2! radix $end
$upscope $end


$scope function uvm_bitstream_to_string $end
$var reg 4096 3! value [4095:0] $end
$var integer 32 4! size $end
$var integer 32 5! radix $end

$scope begin 24unnblk $end
$var reg 4096 6! _t [4095:0] $end
$upscope $end

$upscope $end


$scope function uvm_integral_to_string $end
$var reg 64 7! value [63:0] $end
$var integer 32 8! size $end
$var integer 32 9! radix $end

$scope begin 26unnblk $end
$var reg 64 :! _t [63:0] $end
$upscope $end

$upscope $end


$scope function uvm_vector_to_string $end
$var reg 4096 ;! value [4095:0] $end
$var integer 32 <! size $end
$var integer 32 =! radix $end
$upscope $end


$scope function uvm_get_array_index_int $end
$var reg 1 >! is_wildcard $end
$var integer 32 ?! uvm_get_array_index_int $end
$var integer 32 @! i $end
$upscope $end


$scope function uvm_get_array_index_string $end
$var reg 1 A! is_wildcard $end
$var integer 32 B! i $end
$upscope $end


$scope function uvm_is_array $end
$var reg 1 C! uvm_is_array $end
$upscope $end


$scope function uvm_has_wildcard $end
$upscope $end


$scope function m_uvm_string_queue_join $end
$upscope $end


$scope task run_test $end
$upscope $end


$scope function global_stop_request $end
$upscope $end


$scope function set_global_timeout $end
$var time 64 D! timeout $end
$var reg 1 E! overridable $end
$upscope $end


$scope function set_global_stop_timeout $end
$var time 64 F! timeout $end
$upscope $end


$scope function uvm_get_report_object $end
$upscope $end


$scope function uvm_report_enabled $end
$var integer 32 G! verbosity $end
$var reg 2 H! severity $end
$var integer 32 I! uvm_report_enabled $end
$upscope $end


$scope function uvm_report $end
$var reg 2 J! severity $end
$var integer 32 K! verbosity $end
$var integer 32 L! line $end
$var reg 1 M! report_enabled_checked $end
$upscope $end


$scope function m__uvm_report_dpi $end
$var integer 32 N! severity $end
$var integer 32 O! verbosity $end
$var integer 32 P! line $end
$upscope $end


$scope function uvm_report_info $end
$var integer 32 Q! verbosity $end
$var integer 32 R! line $end
$var reg 1 S! report_enabled_checked $end
$upscope $end


$scope function uvm_report_warning $end
$var integer 32 T! verbosity $end
$var integer 32 U! line $end
$var reg 1 V! report_enabled_checked $end
$upscope $end


$scope function uvm_report_error $end
$var integer 32 W! verbosity $end
$var integer 32 X! line $end
$var reg 1 Y! report_enabled_checked $end
$upscope $end


$scope function uvm_report_fatal $end
$var integer 32 Z! verbosity $end
$var integer 32 [! line $end
$var reg 1 \! report_enabled_checked $end
$upscope $end


$scope function uvm_process_report_message $end
$upscope $end


$scope function uvm_string_to_severity $end
$var reg 2 ]! sev $end
$var reg 1 ^! uvm_string_to_severity $end
$upscope $end


$scope function uvm_string_to_action $end
$upscope $end


$scope function set_config_int $end
$var reg 4096 _! value [4095:0] $end
$upscope $end


$scope function set_config_object $end
$var reg 1 `! clone $end
$upscope $end


$scope function set_config_string $end
$upscope $end


$scope function uvm_is_match $end
$var reg 1 a! uvm_is_match $end
$upscope $end


$scope function uvm_string_to_bits $end
$var reg 115200 b! uvm_string_to_bits [115199:0] $end
$upscope $end


$scope function uvm_bits_to_string $end
$var reg 115200 c! str [115199:0] $end
$upscope $end


$scope task uvm_wait_for_nba_region $end
$var integer 32 d! nba $end
$var integer 32 e! next_nba $end
$upscope $end


$scope function uvm_split_string $end
$upscope $end


$scope function uvm_hdl_concat2string $end
$upscope $end

$upscope $end


$scope module std $end

$scope function randomize $end
$var reg 1 f! randomize $end
$upscope $end

$upscope $end

$enddefinitions $end
$dumpvars
0!
0"
bx #
b0 $
1%
0&
x'
x(
bx )
bx *
x+
x,
x-
x.
bx /
bx 0
bx 1
x2
x3
x4
x5
bx 6
bx 7
08
09
x:
x;
bx <
1=
0>
b0 ?
b0 @
b0 A
b1000 B
b1000 C
b11 D
b11111111111111111111111111111111 E
1F
b1000011111110111011111100011111 G
b10000000000 H
b1000000000000 I
b1111000000000000000000000000 J
b10001 K
b10101010101 L
b101010101 M
b101010101 N
b0 O
b1 P
b10 Q
b100 R
b1000 S
b10000 T
b100000 U
b1000000 V
b10000000 W
b100000000 X
b1000000000 Y
b10000000000000 Z
b100000000000000 [
b1000000000000000 \
b10000000000000000 ]
b100000000000000000 ^
b100000000000000001 _
b100000000000000010 `
b100000000000000011 a
b100000000000000100 b
b100000000000000101 c
b100000000000000110 d
b100000000000000110 e
b100000000000000111 f
b100000000000001000 g
b100000000000001000 h
b100110000010001110110110110 i
b1 j
b1000010 k
b1111000 l
b1111000 m
b1110111111 n
b11100000111111111 o
b0 p
bx q
b0 r
bx s
b0 t
bx u
bx v
bx w
b0 x
b0 y
bx z
b0 {
b0 |
b0 }
b0 ~
b0 !!
b0 "!
b101110 #!
b11011 $!
b10001 %!
b11 &!
b11001 '!
b1000011111110111011111100011111 (!
b110110000110100100110111001011 )!
1*!
b1110001 +!
b1010011011100011110000100001101 ,!
b10110101100111110101011011101101 -!
b101110 .!
b0 /!
b10100 0!
b11111111111111111111111111111111 1!
b0 2!
bx 3!
b0 4!
b0 5!
bx 6!
b1 7!
b100000 8!
b10000000000000000000000000 9!
bx :!
bx ;!
b0 <!
b0 =!
0>!
b0 ?!
b0 @!
0A!
b0 B!
0C!
bx D!
0E!
bx F!
b111110100 G!
b0 H!
b0 I!
b0 J!
b0 K!
b0 L!
0M!
b0 N!
b0 O!
b0 P!
b0 Q!
b0 R!
0S!
b0 T!
b0 U!
0V!
b0 W!
b0 X!
0Y!
b0 Z!
b0 [!
0\!
b0 ]!
0^!
bx _!
0`!
0a!
bx b!
bx c!
b100100 d!
b100100 e!
0f!
$end
#2
1"
19
#5
1!
18
b100101 e!
b110110000110100100110111010001 -!
1,
0+
b10000110 *
b100101 d!
b0 6
15
04
b0 /
1.
0-
1(
0'
b10000110 #
b10000110 <
0;
1:
#10
0!
08
#15
1!
18
b100110 e!
b110110000110100100110111011010 -!
0,
1+
b100110 d!
b1 @
0=
0%
13
02
b10000110 1
0(
1'
1;
0:
#20
0!
08
#25
1!
18
b100111 e!
b110110000110100100110111100111 -!
1,
0+
b1111100 *
b100111 d!
b1 A
b10000110 ?
b10000110 $
1=
1%
05
03
12
0.
1(
0'
b1111100 #
b1111100 <
0;
1:
#30
0!
08
#35
1!
18
b101000 e!
b110110000110100100110111111000 -!
0,
1+
b101000 d!
b10 @
0=
0%
b10000110 6
15
13
02
b1111100 1
b10000110 /
1.
0(
1'
1;
0:
#40
0!
08
#45
1!
18
b101001 e!
b110110000110100100111000001101 -!
1,
0+
b1000010 *
b101001 d!
b10 A
b1111100 ?
b1111100 $
1=
1%
05
03
12
0.
1(
0'
b1000010 #
b1000010 <
0;
1:
#50
0!
08
#55
1!
18
b101010 e!
b110110000110100100111000100110 -!
0,
1+
b101010 d!
b11 @
0=
0%
b1111100 6
15
13
02
b1000010 1
b1111100 /
1.
0(
1'
1;
0:
#60
0!
08
#65
1!
18
b101011 e!
b110110000110100100111001000011 -!
1,
0+
b11011000 *
b101011 d!
b11 A
b1000010 ?
b1000010 $
1=
1%
05
03
12
0.
1(
0'
b11011000 #
b11011000 <
0;
1:
#70
0!
08
#75
1!
18
b101100 e!
b110110000110100100111001100100 -!
0,
1+
b101100 d!
b100 @
0=
0%
b1000010 6
15
13
02
b11011000 1
b1000010 /
1.
0(
1'
1;
0:
#80
0!
08
#85
1!
18
b101101 e!
b110110000110100100111010001001 -!
1,
0+
b111110 *
b101101 d!
b100 A
b11011000 ?
b11011000 $
1=
1%
05
03
12
0.
1(
0'
b111110 #
b111110 <
0;
1:
#90
0!
08
#95
1!
18
b101110 e!
0,
1+
b101110 d!
b101 @
0=
0%
b11011000 6
15
13
02
b111110 1
b11011000 /
1.
0(
1'
1;
0:
#100
0!
08
#105
1!
18
b101 A
b111110 ?
b111110 $
1=
1%
05
03
12
0.
#110
0!
08
#115
1!
18
b111110 6
15
b111110 /
1.
#120
0!
08
#125
1!
18
#130
0!
08
#135
1!
18
#140
0!
08
#145
1!
18
b110000 e!
b110000 d!
b110010 e!
b110010 d!
b10010001101011000101111111111011 -!
b10010001101011000110000000001101 -!
b10010001101011000110000000100000 -!
b1110010110110000000110001011111 -!
b1100100 G!
b1 I!
b1100100 Q!
b1101100101 R!
1S!
